<?xml version="1.0" encoding="utf-8"?>
<!-- Generator: Adobe Illustrator 25.3.1, SVG Export Plug-In . SVG Version: 6.00 Build 0)  -->
<svg version="1.1" id="Layer_1" xmlns="http://www.w3.org/2000/svg" xmlns:xlink="http://www.w3.org/1999/xlink" x="0px" y="0px"
	 viewBox="0 0 136.5 184" style="enable-background:new 0 0 136.5 184;" xml:space="preserve">
<style type="text/css">
	.st0{fill:#5A5B5D;}
	.st1{fill:#8986C0;}
	.st2{opacity:0.54;}
	.st3{fill:#FFFFFF;}
	.st4{fill:#FFFFFF;stroke:#808285;stroke-width:0.5;stroke-miterlimit:10;}
	.st5{fill:#98CBD6;}
	.st6{fill:#939598;}
	.st7{fill:#E2EAF7;}
	.st8{opacity:0.41;}
	.st9{fill:#F1F2F2;}
	.st10{fill:url(#SVGID_1_);}
	.st11{fill:url(#SVGID_2_);}
	.st12{opacity:0.8;}
	.st13{fill:url(#SVGID_3_);}
	.st14{fill:url(#SVGID_4_);}
	.st15{fill:url(#SVGID_5_);}
	.st16{fill:url(#SVGID_6_);}
	.st17{fill:url(#SVGID_7_);}
	.st18{fill:url(#SVGID_8_);}
	.st19{fill:url(#SVGID_9_);}
	.st20{fill:url(#SVGID_10_);}
	.st21{fill:url(#SVGID_11_);}
	.st22{fill:url(#SVGID_12_);}
	.st23{fill:url(#SVGID_13_);}
	.st24{fill:url(#SVGID_14_);}
	.st25{fill:#98CBD6;stroke:#98CBD6;stroke-width:0.5;stroke-miterlimit:10;}
	.st26{fill:url(#SVGID_15_);}
	.st27{fill:url(#SVGID_16_);}
	.st28{fill:url(#SVGID_17_);}
	.st29{fill:url(#SVGID_18_);}
	.st30{fill:url(#SVGID_19_);}
	.st31{fill:url(#SVGID_20_);}
	.st32{fill:url(#SVGID_21_);}
	.st33{fill:url(#SVGID_22_);}
	.st34{fill:url(#SVGID_23_);}
	.st35{fill:url(#SVGID_24_);}
	.st36{fill:url(#SVGID_25_);}
	.st37{fill:url(#SVGID_26_);}
	.st38{fill:url(#SVGID_27_);}
	.st39{fill:url(#SVGID_28_);}
	.st40{fill:url(#SVGID_29_);}
	.st41{fill:url(#SVGID_30_);}
	.st42{fill:url(#SVGID_31_);}
	.st43{fill:url(#SVGID_32_);}
	.st44{fill:url(#SVGID_33_);}
	.st45{fill:url(#SVGID_34_);}
	.st46{fill:url(#SVGID_35_);}
	.st47{fill:url(#SVGID_36_);}
	.st48{fill:url(#SVGID_37_);}
	.st49{fill:url(#SVGID_38_);}
	.st50{fill:url(#SVGID_39_);}
	.st51{fill:url(#SVGID_40_);}
	.st52{fill:url(#SVGID_41_);}
	.st53{fill:url(#SVGID_42_);}
	.st54{fill:url(#SVGID_43_);}
	.st55{fill:url(#SVGID_44_);}
	.st56{fill:url(#SVGID_45_);}
	.st57{fill:url(#SVGID_46_);}
	.st58{fill:url(#SVGID_47_);}
	.st59{fill:url(#SVGID_48_);}
	.st60{fill:url(#SVGID_49_);}
	.st61{fill:url(#SVGID_50_);}
	.st62{fill:url(#SVGID_51_);}
	.st63{fill:url(#SVGID_52_);}
</style>
<g>
	<linearGradient id="SVGID_1_" gradientUnits="userSpaceOnUse" x1="69.5881" y1="23.7391" x2="69.5881" y2="162.5365">
		<stop  offset="7.457010e-02" style="stop-color:#8986C0"/>
		<stop  offset="0.3777" style="stop-color:#8D9FC8"/>
		<stop  offset="0.7946" style="stop-color:#94BFD2"/>
		<stop  offset="1" style="stop-color:#98CBD6"/>
	</linearGradient>
	<path class="st10" d="M112.1,115.2L70.6,24.5c-0.4-1-1.2-1-1.6,0l-41.9,90.7c-0.4,1-0.2,2.4,0.5,3.2L68.5,162
		c0.7,0.8,1.9,0.8,2.6,0l40.4-43.6C112.3,117.5,112.5,116.1,112.1,115.2z M91.5,119.7l-20.8,22.7c-0.7,0.8-1.9,0.8-2.6,0l-21-22.7
		c-0.7-0.8-1-2.2-0.5-3.2l22-48c0.4-1,1.2-1,1.6,0l21.8,48C92.5,117.4,92.2,118.9,91.5,119.7z"/>
	<linearGradient id="SVGID_2_" gradientUnits="userSpaceOnUse" x1="69.5872" y1="80.5604" x2="69.5872" y2="134.9464">
		<stop  offset="7.457010e-02" style="stop-color:#8986C0"/>
		<stop  offset="0.3777" style="stop-color:#8D9FC8"/>
		<stop  offset="0.7946" style="stop-color:#94BFD2"/>
		<stop  offset="1" style="stop-color:#98CBD6"/>
	</linearGradient>
	<path class="st11" d="M86.2,116.1L70.2,81c-0.3-0.6-0.7-0.6-1,0L53,116.1c-0.3,0.6-0.1,1.4,0.3,1.9l15.6,16.6
		c0.4,0.5,1.2,0.5,1.6,0L85.9,118C86.3,117.5,86.4,116.6,86.2,116.1z M78,118.5l-7.7,8.4c-0.4,0.5-1.1,0.5-1.6,0l-7.7-8.4
		c-0.4-0.5-0.6-1.3-0.3-1.9l8.4-18.2c0.3-0.6,0.7-0.6,1,0l8.3,18.2C78.5,117.2,78.4,118,78,118.5z"/>
</g>
</svg>
